{
  "name": "Tinge the Screen",
  "description": "Add a tinge of color to the whole screen",
  "uuid": "tinge@dysania.gitlab.com",
  "url": "https://gitlab.com/dysania/tinge",
  "version": 1,
  "settings-schema": "org.gnome.shell.extensions.tinge-the-screen",
  "shell-version": ["3.34"]
}
